料理NO,料理名,主副FLAG,アレルギー食品値,料理画像,レシピ,材料,ジャンルNO
0,キャベツが甘いハムたまご丼,0,\,5\,,apan/ve_R361.pg,{"step1":"1.キャベツの葉とハムは食べやすい大きさに切る。キャベツの硬い部分(芯)はみじん切り。卵はといておく。"\,"step2":"2.フライパンにキャベツ、ハム、めんつゆ、水を入れて中火で熱し、5分程度煮る。"\,"step3":"3.キャベツが柔らかくなったら、とき卵を全体に流し入れ、鍋ぶたをする。"\,"step4":"4.卵が半熟状になったら、火を止める。"\,"step5":"5.丼ぶりご飯に具材をかけ、煮汁も少しかけたら出来上がり。お好みで刻みのりをかけてもいいよ。"},{"id1":["384"\,20]\,"id2":["261"\,20]\,"id3":["258"\,120]\,"id4":["558"\,30]\,"id5":["48"\,200]\,"id6":["708"\,90]},1
0,たけのこのあんかけチャーハン,0,,apan/ve_R362.pg,{"step1":"1.たけのこは薄切り。豚肉は食べやすく切る。にんにくはみじん切りにする。"\,"step2":"2.フライパンに油を入れて、ねぎを炒め、ご飯を入れて、塩、こしょうをし、器に盛る。"\,"step3":"2.フライパンに油を入れて、ねぎを炒め、ご飯を入れて、塩、こしょうをし、器に盛る。"\,"step4":"4.豚肉の色が変わったら、水100cc、中華スープ、味噌、砂糖を入れて、煮立て、水溶き片栗粉を入れて、とろみをつける。"\,"step5":"5.30?40秒が炒めたら手順3も入れ、強火でサッと炒めて火を止める。◎を入れてざっくり混ぜ合わせれば完成。"},{"id1":["370"\,40]\,"id2":["182"\,40]\,"id3":["521"\,8]\,"id4":["530"\,10]\,"id5":["336"\,8]\,"id6":["531"\,5]\,"id7":["522"\,20]},1
0,マジックソルトで粉ふきいも,1,,weten/ve_R363.pg,{"step1":"1.じゃがいもを鍋で茹で、柔らかくなったら鍋に蓋をして少しずらし、お湯を捨てる。"\,"step2":"2.マジックソルトをふりかけ、再度蓋をして鍋をゆする。全体に馴染んだら出来上がり。"},{"id1":["59"\,300]\,"id2":["530"\,20]},2
0,白菜と鶏むね肉のピリ辛にんにく煮込み,0,\,20\,,china/ve_R364.pg,{"step1":"1.白菜は、2cm幅のざく切りにして、洗って水をきる。"\,"step2":"2.椎茸は薄くスライス、えのきは、石突きを切り落とす。"\,"step3":"3.鍋に水と調味料を入れて火にかけ、沸騰したら、野菜を入れる。"\,"step4":"4.再び沸騰したら、よく混ぜてから蓋をして、弱火で20分煮る。"\,"step5":"5.鶏肉は一口大の削ぎ切りにし、塩をふって下味を付ける。"\,"step6":"6.野菜が煮えたら、鶏肉を入れて、2分程ぐつぐつ煮てから火を止め、そのまましばらくおいて、余熱で鶏肉に火を通す"},{"id1":["299"\,20]\,"id2":["530"\,20]\,"id3":["432"\,40]\,"id4":["179"\,40]\,"id5":["189"\,20]\,"id6":["708"\,200]\,"id7":["707"\,15]\,"id8":["531"\,5]\,"id9":["720"\,20]\,"id10":["539"\,5]\,"id11":["429"\,20]},3
0,豚しゃぶサラダゆず胡椒ポン酢,0,\,22\,,apan/ve_R365.pg,{"step1":"1.柚子こしょうポン酢ドレッシングの材料をあわせておく。おくらは塩少量（分量外）をまぶす。"\,"step2":"2.セロリは5mmの斜め切りにし葉の部分はざく切りにしてざるに入れる。きゅうりとみょうがは千切り、大葉は手でちぎっておく。"\,"step3":"3.鍋に湯を沸かし、セロリをざるに入れたままさっと湯通しする。順におくら、いんげん、もやしもさっとゆでておく。"\,"step4":"4.いんげんは冷水にとって4～５ｃｍに切り、他の野菜も水分をよくきっておく。おくらは別にしてがくを取り小口切りにしておく。"\,"step5":"5.鍋に新たに湯を沸かし、酒を加えて、豚肉を１枚ずつさっと湯がき、しゃぶしゃぶにして粗熱をとる。"\,"step6":"6.オクラ以外の野菜をよくまぜて器に盛り、豚肉をのせて、上におくらをのせ、ドレッシングをかけて、完成。"},{"id1":["715"\,100]\,"id2":["445"\,30]\,"id3":["408"\,20]\,"id4":["83"\,50]\,"id5":["444"\,20]\,"id6":["386"\,30]\,"id7":["387"\,30]\,"id8":["375"\,30]\,"id9":["496"\,30]\,"id10":["706"\,80]\,"id11":["522"\,20]\,"id12":["512"\,20]\,"id13":["530"\,10]},1
0,中華もやしサラダ,0,,apan/ve_R366.pg,{"step1":"1.もやしはさっと茹でるか、レンジでチン♪きゅうり、ハムは細切り、ツナは軽く油分を絞って、ボウルに入れる♪"\,"step2":"2.●の調味料をあわせ、タレを作る♪"\,"step3":"3.?の具材に?のタレを入れる♪"\,"step4":"4.よく混ぜ合わせ、冷蔵庫で30分程度味を馴染ませたら♪（水分がけっこう出でますので水気を切って下さいね♪）"},{"id1":["445"\,20]\,"id2":["386"\,30]\,"id3":["146"\,30]\,"id4":["261"\,20]\,"id5":["176"\,20]\,"id6":["531"\,20]\,"id7":["534"\,10]\,"id8":["524"\,20]\,"id9":["568"\,10]},1
0,じゃがいもと玉ねぎ油揚げの和煮物,1,,apan/ve_R367.pg,{"step1":"1.じゃが芋は、一口大に切って、水に浸けてアクをとる"\,"step2":"2.玉ねぎは、1cm幅のくし切りにする。"\,"step3":"3.油揚げは、一口大に切る。"\,"step4":"4.鍋に水と調味料を入れて火にかけ、沸騰したら、玉ねぎと油揚げを入れて、10分煮る。"\,"step5":"5.水をきったじゃが芋を入れて、再び沸騰したら、弱火で、更に10分煮る。"},{"id1":["92"\,20]\,"id2":["415"\,20]\,"id3":["59"\,40]\,"id4":["708"\,100]\,"id5":["531"\,30]\,"id6":["496"\,20]\,"id7":["528"\,20]\,"id8":["557"\,30]\,"id9":["565"\,20]\,"id10":["530"\,5]},1
0,アスパラと豚バラ肉のピリ辛炒め,0,\,22\,,apan/ve_R368.pg,{"step1":"1.豚バラは食べやすい大きさにきり、●印の調味液に漬け込みます。"\,"step2":"2.アスパラも3～4cmくらいの食べやすい大きさに切ります。"\,"step3":"3.フライパン少量の油を熱し、豚バラを炒めます。火が通ってきたら、アスパラを入れて再度炒めます。"\,"step4":"4.調味液を回し入れて、出来上がり。"},{"id1":["371"\,50]\,"id2":["370"\,50]\,"id3":["311"\,100]\,"id4":["513"\,5]\,"id5":["531"\,5]\,"id6":["531"\,5]\,"id7":["496"\,20]\,"id8":["531"\,5]\,"id9":["557"\,20]\,"id10":["539"\,10]\,"id11":["568"\,10]\,"id12":["500"\,20]},1
0,新たまねぎとカブのシンプルサラダ,1,,apan/ve_R369.pg,{"step1":"1.新玉ねぎとカブは半分に切ってスライサーで。葉は細かく切る。"\,"step2":"2.カブと葉は塩揉みをして絞る。"\,"step3":"3.器に新玉ねぎ、塩揉みしたカブを乗せる。えのきだけ、塩こぶをトッピングしたらポン酢を廻し掛けて出来上がり！"},{"id1":["415"\,30]\,"id2":["377"\,30]\,"id3":["179"\,10]\,"id4":["323"\,20]\,"id5":["706"\,20]},1
0,もやしのタイ風和え,1,,apan/ve_R370.pg,{"step1":"1.もやしを洗ってレンジで3分チンしてザルで水気を落とす掛けタレをよく混ぜて完成"},{"id1":["445"\,30]\,"id2":["712"\,10]\,"id3":["531"\,20]\,"id4":["534"\,8]\,"id5":["528"\,20]\,"id6":["420"\,20]},1
0,かき揚げ,1,,apan/ve_R371.pg,{"step1":"1.ちくわは長さを1/3に切った後、縦に細切りにする。青しそは洗って水気を拭き取り細切りにする。紅生姜は水気を切っておく。"\,"step2":"2.もやしはきれいに洗い、ひげ根を取っておく。"\,"step3":"3.もやしに天ぷら粉大さじ1をまぶしておく。"\,"step4":"4.ボウルに天ぷら粉大さじ3と水大さじ3を混ぜ、その中にちくわ、紅生姜、もやし、青しそを順番に混ぜる。"\,"step5":"5.フライパンにサラダ油を入れ200℃に熱し、木べらに4をのせてすべらせるように入れカラッと揚げる。"\,"step6":"6.器に盛り、天つゆや塩でどうぞ召し上がれ♪"},{"id1":["445"\,50]\,"id2":["220"\,30]\,"id3":["643"\,15]\,"id4":["400"\,5]\,"id5":["25"\,40]\,"id6":["708"\,30]\,"id7":["529"\,10]},1
0,焼き肉でアボカドココット,1,\,14\,,apan/ve_R372.pg,{"step1":"1.アボカドを半分に切り、種を取り除く。"\,"step2":"2.牛肉を炒め、塩コショウで味を整える。"\,"step3":"3.くぼみに牛肉を入れてネギをまぶす。"\,"step4":"4.焼肉のタレをかけて最後にレモンを添えれば完成です！"\,"step5":"5.スプーンでくり抜きご飯にのせても美味しいです?"},{"id1":["278"\,50]\,"id2":["663"\,50]\,"id3":["424"\,10]\,"id4":["523"\,3]\,"id5":["719"\,10]},1
0,炒めないスパイシーもやし,1,\,6\,,apan/ve_R373.pg,{"step1":"1.もやしは茹でてザルにあげ、そのまま冷ます。"\,"step2":"2.１にウスターソース、トマトケチャップ、こしょうを加えてよく混ぜ、小さく千切ったスマートチーズを加える。さらに混ぜ、器に盛り付ける。"},{"id1":["445"\,100]\,"id2":["535"\,5]\,"id3":["540"\,15]\,"id4":["523"\,3]\,"id5":["343"\,15]},1
0,スパイシーもやしスパ風,1,,apan/ve_R374.pg,{"step1":"1.フライパンにサラダ油を熱してもやしを炒め、●を加えて調味する。"\,"step2":"2.１に水溶き片栗粉を様子を見ながら加えてトロミをつけ、器に盛り付ける。"},{"id1":["445"\,100]\,"id2":["726"\,2]\,"id3":["540"\,7]\,"id4":["535"\,7]\,"id5":["523"\,1]\,"id6":["513"\,2]\,"id7":["529"\,2]},1
0,アボカドのごま和え,1,\,19\,,apan/ve_R375.pg,{"step1":"1.ボールに☆を入れて良く混ぜ、お好みの大きさに切ったアボカドを加えて絡め和えたら出来上がりです♪"},{"id1":["663"\,50]\,"id2":["531"\,5]\,"id3":["528"\,5]\,"id4":["173"\,7]},1
0,豚ナスのスタミナ炒め,0,\,19\,22\,,apan/ve_R376.pg,{"step1":"1.豚薄切り肉に下味(塩・こしょう)をもみ込んでおく。"\,"step2":"2.茄子は下処理をしておく。(茄子は塩水(水・５カップに対し、塩・小さじ１程度)に５～１０分程度さらしてあくを抜き、しっかりと水気をふき取る。)"\,"step3":"3.熱したフライパンにサラダ油を敷き、①を入れ、焼き色がつくまで炒める。"\,"step4":"4.茄子を入れ、全体に火が通るまで炒め、取り出しておく。"\,"step5":"5.フライパンに☆を入れ、少し苦めのカラメルソースを作るように煮つめる。(普通のカラメルソースだと甘めに仕上がってしまうので注意?(こげ茶色＜黒に近いこげ茶色))"\,"step6":"6.▲を入れ、とろみがつくまで煮つめる。"\,"step7":"7.④を入れ、水分を飛ばしながら全体を炒め合せる。途中、ピーマンを加える。"\,"step8":"8.お皿に盛り、完成?"},{"id1":["311"\,50]\,"id2":["530"\,2]\,"id3":["523"\,2]\,"id4":["425"\,20]\,"id5":["437"\,10]\,"id6":["531"\,15]\,"id7":["557"\,15]\,"id8":["500"\,7]\,"id9":["528"\,3]\,"id10":["524"\,10]\,"id11":["430"\,2]\,"id12":["404"\,2]\,"id13":["420"\,2]\,"id14":["528"\,2]\,"id15":["708"\,3]\,"id16":["529"\,5]},1
0,醤油麹とカマンベールで筍の田楽,1,\,6\,19\,,apan/ve_R377.pg,{"step1":"1.下茹でしてある筍を厚めに切る。キッチンペーパーで水分を拭く。"\,"step2":"2.筍をアルミホイルの上に重ならない様に置き醤油麹を塗りカマンベールチーズも乗せる。"\,"step3":"3.オーブントースターでチーズが溶けて焼き目がつけば出来上がり。"},{"id1":["413"\,30]\,"id2":["727"\,5]\,"id3":["343"\,5]},1
0,新玉ねぎの豚バラ巻き,1,\,22\,,apan/ve_R378.pg,{"step1":"1.玉ねぎは皮を剥き、上下を切って、縦に八等分に切る。豚バラ肉は長さを二等分に切る。"\,"step2":"2.まな板に肉を並べ塩コショウする。その上に、軽く片栗粉を振る。玉ねぎに巻き付け、巻き終わりを下にして皿に並べる。"\,"step3":"3.ふんわりラップをして、電子レンジ700ｗで5分加熱。ラップを外し、豚バラから出た脂をキッチンペーパーでふき取る。"\,"step4":"4.ポン酢や焼き肉のたれなど、好みのたれをかけたら出来上がり"},{"id1":["413"\,50]\,"id2":["311"\,20]\,"id3":["523"\,3]\,"id4":["513"\,5]\,"id5":["706"\,5]},1
0,じゃがいものクリーミーグラタン,0,\,6\,,apan/ve_R379.pg,{"step1":"1.じゃがいもは皮をむき、5ｍｍ程度の薄切りにします。たまねぎはせん切り、にんにくはみじん切りにします。"\,"step2":"2.鍋に1、●を加えて、吹きこぼれに注意しながら煮ます。"\,"step3":"3.2のじゃがいもが柔らかくなったら、水分がなくなるまで煮詰めます。塩・コショウを少々します。"\,"step4":"4.耐熱皿に3を入れ、チーズをのせます。"\,"step5":"5.オーブンやオーブントースターなどで色よく焼けたら出来上がり。"},{"id1":["59"\,150]\,"id2":["415"\,50]\,"id3":["430"\,1]\,"id4":["363"\,125]\,"id5":["564"\,2]\,"id6":["547"\,5]\,"id7":["353"\,25]\,"id8":["523"\,5]},1
0,アボカドとトマトの胡麻マヨ和え,1,\,19\,,wetern/ve_R380.pg,{"step1":"1.アボガドは皮と種を取り除き、２ｃｍ程度の角切りにする"\,"step2":"2.トマトを同じくらいの角切りにする"\,"step3":"3.玉ねぎは薄切りにして水にさらす。"\,"step4":"4.調味料をすべてよく混ぜ合わせてから、アボガドとトマト、玉ねぎを加えて和える"},{"id1":["423"\,50]\,"id2":["663"\,50]\,"id3":["415"\,25]\,"id4":["555"\,10]\,"id5":["173"\,3]\,"id6":["531"\,2]\,"id7":["492"\,2]\,"id8":["528"\,2]},2
0,簡単ジャーマンポテト,1,\,19\,22\,,wetern/ve_R391.pg,{"step1":"1 ジャガイモは5ミリ幅にスライスし、レンチンした後デンプンでくっつかないように、水にさらす。"\,"step2":"2 水気を切ったジャガイモをお皿に乗せ、ぴっちりラップをし、600Wで6分?8分加熱する。"\,"step3":"3 玉ねぎは薄切り、ベーコンは3?4センチ幅に切る。"\,"step4":"4 .フライパンにオリーブオイルを熱し、中火で玉ねぎを炒める。"\,"step5":"5 玉ねぎがしんなりしたらベーコンも炒める。"\,"step6":"6 ジャガイモも加えサッと炒める。"\,"step7":"7 全体にマスタードとコンソメ顆粒が混ざれば出来上がり"},{"id1":["59"\,30]\,"id2":["415"\,15]\,"id3":["267"\,20]\,"id4":["512"\,15]\,"id5":["571"\,10]\,"id6":["564"\,5]\,"id7":["522"\,5]},2
0,豚ひき肉と茄子の甘味噌炒め,1,,apan/ve_R392.pg,{"step1":"1 なすは縦半分に切って5ミリ幅に切り、水に漬けておく、しょうがはみじん切りに切る"\,"step2":"2 フライパンに分量外のサラダ油を加熱してしょうがを炒め、香りが立つと鶏ひき肉を入れて炒める"\,"step3":"3 鶏ひき肉の色が変わってくるとなすを加えて炒める"\,"step4":"4 .なすがしんなりとしてくると調味料を入れて弱火にして混ぜて絡める。"\,"step5":"5 お皿に盛って出来上がり"},{"id1":["312"\,100]\,"id2":["425"\,50]\,"id3":["404"\,10]\,"id4":["556"\,15]\,"id4":["528"\,15]\,"id5":["500"\,15]},1
0,きゅうりと紫玉ねぎのさっぱりサラダ,1,\,19\,,apan/ve_R393.pg,{"step1":"1 わかめは水で戻して、ザルに上げておきます。"\,"step2":"2 キュウリをスライサーでスライスします。塩で揉みます。"\,"step3":"3 玉ねぎもスライサーでスライスし、紫玉ねぎならサッと水で洗う手度で、玉ねぎは20分位水にさらします。"\,"step4":"4 .玉ねぎはザルに上げ水気を切っておきます。キュウリはざっと洗って塩を落として絞っておきます。"\,"step5":"5 ドレッシングを作ります。味見をしてお好みに調整して下さい。"\,"step6":"6 ジボールで野菜とドレッシングを混ぜたら出来上がり。"},{"id1":["386"\,40]\,"id2":["705"\,20]\,"id3":["321"\,10]\,"id4":["116"\,10]\,"id5":["534"\,15]\,"id6":["524"\,15]\,"id7":["532"\,15]\,"id8":["528"\,15]},1
0,玉ねぎサラダ焼きそば粉末ソース味,1,,apan/ve_R394.pg,{"step1":"1 玉ねぎを 太めの薄切りし少し空気にさらします.ジップロックみたいな口が閉まる保存袋に、調味料を入れて軽く揉みます。"\,"step2":"2 ①にローリエを加えまた軽くもみます。"\,"step3":"3 馴染んだら 袋の口を閉じながら軽く空気を抜いて味を染み込ませます。数時間後、味が馴染んだら食べられます"},{"id1":["415"\,30]\,"id2":["511"\,15]\,"id3":["535"\,10]\,"id4":["534"\,15]\,"id5":["512"\,15]\,"id6":["722"\,10]},1
0,ブロッコリーひき肉のカレー風味パスタ,0,\,3\,,wetern/ve_R395.pg,{"step1":"1 パスタを茹でるお湯+塩（材料外）を準備します。"\,"step2":"2 材料を切ります。・にんにくはみじん切り・ブロッコリーは食べやすい大きさに・玉ねぎはみじん切りに"\,"step3":"3 フライパンを中火で温めてひき肉を炒めます。"\,"step4":"4 ひき肉の色が変わったら、ニンニク、玉ねぎを入れて、さらに炒めます。"\,"step5":"5 パスタを茹でます。"\,"step6":"6 玉ねぎがしんなりしてきたら、弱火にして、カレー粉、コンソメ顆粒を加えて、パスタの茹で汁で延ばします"\,"step7":"7 パスタが茹で上がる3分前にブロッコリーを入れて茹でます。"\,"step8":"8 茹で上がったパスタとブロッコリーを6に投入して全体的に絡めたら出来上がりです。"},{"id1":["430"\,10]\,"id2":["440"\,15]\,"id3":["415"\,15]\,"id4":["279"\,200]\,"id5":["517"\,5]\,"id6":["564"\,5]\,"id7":["9"\,160]},2
0,めんつゆで簡単中華きゅうりの浅漬け,1,,apan/ve_R396.pg,{"step1":"1 キュウリを麺棒などで叩き食べやすい大きさに手で割るビニール袋に麺つゆ、ごま油、ごま入れ揉みキュウリを加える"\,"step2":"2 軽く揉み、冷蔵庫で30分ほど付けておく"},{"id1":["386"\,90]\,"id2":["559"\,45]\,"id3":["524"\,15]},1
0,辛子明太子入りにんじんしりしり,1,\,5\,,apan/ve_R397.pg,{"step1":"1 にんじんは皮を剥き太めの千切りにします（千切り用スライサーを使うと楽です）。"\,"step2":"2 器に卵を割り塩を加えて溶きほぐしておきます。"\,"step3":"3 .辛子明太子は皮を除いておきます。"\,"step4":"4 温めたフライパンにサラダ油を入れ、にんじんを弱めの中火で炒めます。"\,"step5":"5 少ししんなりしたら辛子明太子を加えてほぐしながら炒めます。"\,"step6":"6 卵を加え全体にからめるように炒めれば出来上がりです。"},{"id1":["429"\,120]\,"id2":["529"\,10]\,"id3":["236"\,30]\,"id4":["257"\,20]\,"id5":["530"\,5]},1
0,とろ茄子＆潰しトマトの甘酢エスニック,0,,wetern/ve_R398.pg,{"step1":"1 唐辛子、酢、ナンプラーを合わせておく。"\,"step2":"2 プチトマトは横半分に。茄子は食べやすい大きさに切る。"\,"step3":"3 フライパンにごま油を熱し、茄子を焼き、塩少々。程よい焼き色がついて柔らかくなったら取り出し、お皿に盛る。"\,"step4":"4 .油が足りなければ少量だけ足し、トマトを炒め、トングで挟んで軽く潰していく。"\,"step5":"5 唐辛子、酢、ナンプラーを回し入れ、フライパンを回しながら、軽く煮詰める。(フツフツしたらOK)煮汁ごと、茄子の上にかけたら出来あがり。"\,"step6":"6 バット等に広げて、しっかり冷やしても美味しいです。"},{"id1":["425"\,50]\,"id2":["443"\,20]\,"id3":["534"\,15]\,"id4":["712"\,5]\,"id5":["549"\,10]\,"id6":["399"\,10]\,"id7":["530"\,10]\,"id8":["524"\,10]\,"id9":["435"\,10]},2
0,アスパラガスとベーコンのバター風味チャーハン,0,\,22\,,apan/ve_R399.pg,{"step1":"1 アスパラガスは5㎜幅の輪切りに\,ベーコンは5㎜幅に切る\,玉ねぎは荒めのみじん切り\,にんにくはみじん切り。"\,"step2":"2 フライパンにバターの半量を熱し"\,"step3":"3 にんにく、たまねぎ、ベーコンを入れ炒める。火は中火位。"\,"step4":"4 .玉ねぎが焦げないように火加減に注意しながら、バターに絡ませるように炒める。"\,"step5":"5 ベーコンが半分位焼けてきたところでアスパラを加え、炒め合わせる。"\,"step6":"6 ごはんも入れ、塩・こしょうをし、全体に混ぜ炒める。火を少し強めて、全体をあおるようにすると、パラパラチャーハンに。"\,"step7":"7 醤油を鍋の淵からまわしかけ、焦がし醤油にし、全体に混ぜ合わせる。仕上げに、強火で何度かフライパンをあおって火を止める。"},{"id1":["370"\,30]\,"id2":["267"\,30]\,"id3":["415"\,30]\,"id4":["430"\,10]\,"id5":["48"\,150]\,"id6":["547"\,20]\,"id7":["531"\,10]\,"id8":["530"\,5]},1
0,ブロッコリーの芯ろニラの中華炒め,1,,china/ve_R400.pg,{"step1":"1 ブロッコリーの茎の皮を包丁で厚く切り芯だけにして輪切り\,ニラの根を1cm切って3cmに切り竹輪を小口切り人参を千切り"\,"step2":"2 油少々でブロッコリーの芯とニラの茎を先に2分炒める"\,"step3":"3 残りの具を加えニラがしんなりしてきたらタレを加えて軽く炒めて完成"},{"id1":["440"\,25]\,"id2":["428"\,50]\,"id3":["220"\,30]\,"id4":["429"\,10]\,"id5":["569"\,5]\,"id6":["500"\,5]\,"id7":["511"\,5]\,"id8":["708"\,7]},3
